{
  "processing": "Подождите...",
  "search": "Поиск:",
  "lengthMenu": "Показать _MENU_ записей",
  "info": "Записи с _START_ до _END_ из _TOTAL_ записей",
  "infoEmpty": "Записи с 0 до 0 из 0 записей",
  "infoFiltered": "(отфильтровано из _MAX_ записей)",
  "infoPostFix": "",
  "loadingRecords": "Загрузка записей...",
  "zeroRecords": "Записи отсутствуют.",
  "emptyTable": "В таблице отсутствуют данные",
  "paginate": {
    "first": "<i class='glyphicon glyphicon-fast-backward'></i>",
    "previous": "<i class='glyphicon glyphicon-step-backward'></i>",
    "next": "<i class='glyphicon glyphicon-step-forward'></i>",
    "last": "<i class='glyphicon glyphicon-fast-forward'></i>"
  },
  "aria": {
    "sortAscending": ": активировать для сортировки столбца по возрастанию",
    "sortDescending": ": активировать для сортировки столбца по убыванию"
  }
}
