<svg xmlns:rdf="http://www.w3.org/1999/02/22-rdf-syntax-ns#" xmlns="http://www.w3.org/2000/svg" height="512" width="512" version="1.1" xmlns:cc="http://creativecommons.org/ns#" xmlns:dc="http://purl.org/dc/elements/1.1/" viewBox="0 0 512.00001 512.00001">
	<g transform="translate(0 -540.36)">
		<path d="m36.248 924.11-36.244-36.25 128-128 128-127.99 128 127.99 128 128-36.25 36.25-36.24 36.26-91.76-91.75-91.75-91.75-91.75 91.75-91.757 91.75-36.245-36.26z"/>
	</g>
</svg>
