<svg xmlns:rdf="http://www.w3.org/1999/02/22-rdf-syntax-ns#" xmlns="http://www.w3.org/2000/svg" height="512" width="512" version="1.1" xmlns:cc="http://creativecommons.org/ns#" xmlns:dc="http://purl.org/dc/elements/1.1/" viewBox="0 0 511.99999 511.99999">
	<g transform="translate(0 -540.36)">
		<path d="m238 1051.3c-56.835-6.4371-105.57-40.923-129.91-91.919-6.1795-12.95-10.343-25.548-13.293-40.217-3.0567-15.204-3.2671-45.097-0.42412-60.255 4.4939-23.961 14.834-48.553 28.361-67.449 8.126-11.352 21.829-25.366 32.764-33.507 4.4-3.2759 8.3365-6.2224 8.7477-6.5477 0.41125-0.32534-22.368-47.82-50.621-105.54l-51.372-104.99 96.872-0.25c53.279-0.14022 140.46-0.14022 193.74 0l96.871 0.25495-51.405 105-51.405 105 2.2484 1.5c22.778 15.197 43.109 39.257 55.345 65.5 20.72 44.437 20.542 97.126-0.47594 141.17-29.98 62.87-96.99 100.07-166.05 92.27zm40.946-47.38c22.887-4.8144 42.179-14.945 58.925-30.943 26.815-25.616 39.691-59.029 36.988-95.985-2.9735-40.664-28.41-78.241-65.648-96.98-62.534-31.468-138.63-1.92-164.55 63.896-9.8714 25.066-10.471 55.799-1.5832 81.121 9.6765 27.569 28.481 50.38 53.869 65.35 11.795 6.9547 30.494 13.227 44.897 15.06 8.952 1.1394 28.209 0.3507 37.099-1.5193zm-27.339-22.593c-2.5902-6.9881-7.9482-30.91-7.1107-31.748 0.23726-0.23727 5.6552-0.66191 12.04-0.94366l11.608-0.51228-0.68525 3.8927c-1.6178 9.1904-4.6742 21.442-7.1454 28.643-3.4873 10.162-5.1409 10.289-8.7068 0.66819zm-17.631 1.6734c-5.7054-4.1404-15.781-15.104-18.76-20.414-2.2088-3.9369-2.2219-4.1042-0.39992-5.0794 2.351-1.2582 16.421-5.195 16.89-4.7259 0.1898 0.18981 1.0169 4.1941 1.838 8.8984 0.82112 4.7043 2.3853 12.042 3.4759 16.306 1.0906 4.2643 1.8644 7.8717 1.7196 8.0166-0.14484 0.14485-2.2884-1.2062-4.7635-3.0024zm39.233 2.2595c1.9939-5.3865 3.9972-12.851 5.8648-21.851 1.1983-5.775 2.2844-10.625 2.4136-10.778 0.45357-0.53597 16.439 4.8492 16.977 5.7191 0.91182 1.4754-9.1911 15.628-14.677 20.56-5.8268 5.2388-11.407 8.588-10.578 6.3492zm-71.95-12.245-6.2415-4.2774 2.49-1.3326c1.3695-0.73293 2.6736-1.1444 2.8981-0.91442 0.56519 0.57904 7.5026 10.932 7.2772 10.86-0.10031-0.032-2.991-1.983-6.4239-4.3356zm103.74 1.77c0-1.3098 6.1632-11.409 6.9626-11.409 0.4487 0 1.8423 0.83119 3.0969 1.8471l2.2811 1.8471-6.1703 4.1902c-3.39 2.3-6.17 3.89-6.17 3.52zm-125.91-21c-12.848-14.057-24.006-39.391-24.077-54.662l-0.0174-3.75h13.862 13.862l0.69999 7.75c1.1976 13.259 4.4221 29.93 7.7025 39.823 1.7303 5.2182 2.9722 9.626 2.7597 9.7952-0.21249 0.16919-2.484 1.7248-5.0478 3.4568l-4.6614 3.1492-5.0831-5.5618zm145.3 3.2954c-1.5934-1.3259-3.8647-2.9193-5.0473-3.541l-2.1501-1.1303 2.8845-8.9698c3.3513-10.421 7.5037-30.386 8.4892-40.817l0.68498-7.25h14.015 14.015l-0.6082 6.25c-1.7562 18.047-13.062 42.059-25.453 54.059l-3.9334 3.8093-2.8972-2.4107zm-118.85-14.26c-2.2661-5.4236-6.3737-23.157-7.5148-32.443-0.5745-4.675-1.2857-9.9625-1.5805-11.75l-0.53597-3.25h14.936 14.936l0.68116 11.25c0.37464 6.1875 1.0951 15.075 1.6011 19.75 1.4244 13.162 1.6414 12.441-4.1972 13.938-2.8234 0.72362-7.7802 2.3529-11.015 3.6207l-5.8816 2.305-1.429-3.4201zm88.137-0.41817-10.822-3.525 0.56329-5c0.30981-2.75 0.56721-12.549 0.57199-21.775l0.009-16.775 15.718 0.2754 15.718 0.27539-0.29308 5c-0.71925 12.27-7.3965 42.487-9.8099 44.393-0.45769 0.36144-5.702-0.92909-11.654-2.8678zm-51.248-8.138c-0.25924-0.41947-0.75827-9.3406-1.1089-19.825l-0.6376-19.062h15.795 15.795l-0.61616 9.25c-0.33889 5.0875-0.90477 13.975-1.2575 19.75l-0.64136 10.5-13.429 0.0748c-7.3858 0.0412-13.641-0.26836-13.9-0.68782zm-87.023-61.9c2.1354-16.098 11.353-37.298 22.085-50.797l6.6069-8.3099 3.2959 2.8099c1.8127 1.5454 4.1425 3.3024 5.1774 3.9044 1.817 1.0571 1.7878 1.3657-0.85236 9-3.6239 10.479-6.3459 23.393-7.8319 37.155l-1.2147 11.25h-13.966-13.966l0.66498-5.0129zm41.071-2.2371c0.96266-10.241 4.0469-25.099 7.1312-34.354 1.4472-4.3428 2.7325-8.0139 2.8563-8.1581 0.12373-0.14417 2.2798 0.64683 4.7913 1.7578s7.819 2.7544 11.794 3.6522l7.228 1.6323-0.65997 9.1099c-0.36298 5.0105-0.94534 14.622-1.2941 21.36l-0.63415 12.25h-15.947-15.947l0.68152-7.25zm44.87-11.856c0.36542-10.508 0.87235-19.442 1.1265-19.854 0.25415-0.41124 2.9222-0.32386 5.929 0.19417 3.5806 0.61689 7.8014 0.57841 12.233-0.11152 3.7214-0.57936 6.8754-0.94418 7.0088-0.8107 0.52154 0.52155 2.3159 17.759 2.9601 28.438l0.67875 11.25h-15.3-15.3l0.6644-19.106zm43.768 1.8559c-0.67439-9.4875-1.4568-19.05-1.7386-21.25l-0.51248-4 11.201-3.7828c6.1606-2.0805 11.338-3.6458 11.505-3.4785 0.16734 0.16734 1.4427 4.2328 2.8342 9.0345 2.9483 10.174 5.2526 22.048 6.3995 32.977l0.81331 7.75h-14.638-14.638l-1.2262-17.25zm42.972 5.7776c-1.3884-12.995-4.8746-29.374-7.9873-37.528-1.1549-3.025-2.1-5.9664-2.1003-6.5366-0.00027-0.57009 2.2349-2.7054 4.9671-4.7452l4.9676-3.7086 4.9613 5.9616c13.352 16.044 22.003 34.826 23.708 51.475l0.67148 6.5541h-13.981-13.981l-1.2258-11.472zm-84.09-41.55c0-2.9235 4.5008-21.669 7.1388-29.733 4.402-13.456 6.2361-12.71 11.685 4.75 1.0694 3.4266 5.176 23.347 5.176 25.108 0 0.49057-5.4 0.89194-12 0.89194-7.4705 0-12-0.38404-12-1.0174zm34.487-12.71c-0.96656-5.3748-2.614-12.867-3.661-16.65-1.047-3.7828-1.7231-7.0583-1.5024-7.279 0.78993-0.78992 12.478 8.709 15.862 12.892 3.6734 4.5396 9.8144 13.336 9.8144 14.059 0 0.82855-11.523 5.4885-15.128 6.1178l-3.6279 0.63335-1.7574-9.7724zm-53.49 8.02c-0.825-0.3072-3.8613-1.4286-6.7473-2.4919-4.894-1.8032-5.1698-2.0801-4.0967-4.1125 3.4548-6.5433 17.338-22.268 21.74-24.624 1.6055-0.85921 1.5573-0.18075-0.54587 7.6954-1.2686 4.7507-2.8443 12.15-3.5015 16.443-1.2482 8.1537-1.9736 8.9046-6.8489 7.0892zm-27.364-11.467-2.631-2.3167 6.5172-4.2694 6.5172-4.2694-3.1819 5.7694c-4.2824 7.7647-4.2252 7.7244-7.2215 5.0861zm111.57-2.5667c-2.5773-3.6652-5.3988-9.25-4.6733-9.25 0.3193 0 3.3213 1.8612 6.6711 4.136l6.0905 4.136-2.3954 1.8418c-3.1384 2.413-3.4187 2.3705-5.6929-0.86378zm-100.2-96.185 9.4981-4.8338 9.8568 4.9464c5.4213 2.7205 10.102 4.7008 10.403 4.4006 0.30019-0.3002-0.41151-5.6155-1.5816-11.812l-2.1274-11.266 8.6651-8.7091c5.8447-5.8744 8.1969-8.8621 7.2266-9.1792-0.79113-0.2586-6.0547-1.0031-11.697-1.6544l-10.258-1.1843-4.0332-7.7522c-6.5484-12.587-5.7938-12.517-11.428-1.0651-2.7177 5.5235-5.6344 10.232-6.4816 10.463-0.84717 0.23135-6.2641 0.97098-12.038 1.6436l-10.497 1.223 8.893 8.3128 8.893 8.3128-1.6841 8.7944c-0.92625 4.8369-1.9276 10.032-2.2251 11.544-0.29756 1.5125-0.16777 2.7271 0.28843 2.6992 0.45621-0.0279 5.1036-2.226 10.328-4.8846zm76 0 9.4981-4.8338 9.7338 4.8846c5.3536 2.6866 10.117 4.8846 10.586 4.8846 0.46881 0-0.15003-5.2664-1.3752-11.703l-2.2276-11.703 7.8888-8.5098c5.2544-5.668 7.4729-8.7298 6.6434-9.1688-0.685-0.36247-4.1705-0.96566-7.7455-1.3404-15.168-1.59-13.704-0.69372-18.734-11.473l-4.4802-9.6019-5.1236 10.256c-2.818 5.6407-5.8074 10.442-6.6431 10.67-0.83576 0.22773-6.2397 0.96396-12.009 1.6361l-10.489 1.222 8.8721 8.2005 8.8721 8.2005-1.7031 9.4077c-0.9367 5.1742-1.9453 10.42-2.2413 11.658-0.296 1.2375-0.1519 2.2271 0.32022 2.1992 0.47213-0.0279 5.1325-2.226 10.356-4.8846zm-113.82-64.97 10.31-5.41l9.3156 5.7646c5.1236 3.1705 9.4396 5.6066 9.5912 5.4135 0.15162-0.19311-0.68672-5.5143-1.863-11.825l-2.1387-11.474 6.0474-5.6322c3.3261-3.0977 7.3974-6.8078 9.0474-8.2447 1.65-1.4368 2.4701-2.6267 1.8224-2.644-0.6477-0.0174-4.6977-0.48717-9-1.044-15.079-1.9516-13.339-0.84271-18.826-11.994-2.7044-5.4964-5.1779-9.9935-5.4968-9.9935-0.31888 0-2.7939 4.5-5.5 10s-5.1632 10.014-5.4601 10.032c-0.29694 0.0174-5.2649 0.67817-11.04 1.4683-5.775 0.79015-10.95 1.4587-11.5 1.4856-0.55 0.027 3.012 3.7717 7.9155 8.3217l8.9155 8.2727-1.7201 9.46c-0.94605 5.203-1.984 10.531-2.3066 11.84-0.71228 2.8908-1.0727 3.0059 11.882-3.7938zm74.446 0.41347c5.2394-3.025 9.9487-5.5 10.465-5.5 0.51644 0 5.4418 2.2596 10.945 5.0214 9.3084 4.6712 9.9725 4.863 9.5222 2.75-1.906-8.9448-3.5636-18.325-3.557-20.128 0.005-1.4069 2.992-4.8908 8.6949-10.142l8.687-7.999-11.945-1.501-11.945-1.501-5-9.7477c-2.75-5.3612-5.225-9.7477-5.5-9.7477s-2.75 4.3865-5.5 9.7477l-5 9.7477-6 1.2049c-3.3 0.66268-8.6526 1.7206-11.895 2.3509l-5.8946 1.146 8.8322 8.2004 8.8322 8.2004-1.8257 10.449c-1.0041 5.7468-2.0367 11.011-2.2946 11.699-0.74915 1.9969 0.30542 1.565 10.377-4.25zm74.972-0.13664 9.7628-5.6366 10.316 5.1307c11.891 5.914 11.285 6.5237 8.3117-8.3574l-1.998-10 8.5117-8c4.6814-4.4 8.507-8.2645 8.5013-8.5877-0.006-0.32326-5.1051-1.1556-11.332-1.8496l-11.322-1.2619-5.2956-10.648-5.2956-10.648-5.3361 10.637-5.3361 10.637-6.7967 1.1793c-3.7382 0.64862-9.0449 1.6595-11.793 2.2464l-4.996 1.0671 8.8261 8.1579 8.8261 8.1579-2.0785 10.956c-2.2115 11.657-2.3181 12.456-1.6608 12.456 0.23145 0 4.8141-2.5365 10.184-5.6366z"/>
	</g>
</svg>
