<svg xmlns:rdf="http://www.w3.org/1999/02/22-rdf-syntax-ns#" xmlns="http://www.w3.org/2000/svg" height="512" width="512" version="1.1" xmlns:cc="http://creativecommons.org/ns#" xmlns:dc="http://purl.org/dc/elements/1.1/" viewBox="0 0 512.00001 512.00001">
	<g transform="translate(0 -540.36)">
		<path d="m0.50119 966.36c-0.34057-0.55-0.37869-1.39-0.08471-1.86 0.61492-1 189.29-153.51 190.38-153.89 0.39581-0.13909 10.391 7.695 22.211 17.409 26.448 21.735 28.484 22.804 43.512 22.827 10.407 0.0159 11.382-0.16181 17.5-3.1901 4.0033-1.9816 14.118-9.5282 26.471-19.75 10.995-9.0987 20.22-16.543 20.5-16.542 1.529 0.003 191.05 153.36 190.73 154.34-0.51233 1.537-510.27 2.2002-511.22 0.66507zm-0.50119-171.87v-142.04l86.75 71.494c47.712 39.321 86.836 71.815 86.942 72.209 0.17 0.64-170.92 139.24-172.88 140.05-0.44675 0.18-0.81-63.59-0.81-141.71zm424.5 72.472c-47.3-38.09-85.81-69.67-85.57-70.18 0.39-0.84 18.49-15.86 132.82-110.2l40.25-33.212v141.5c0 77.822-0.3375 141.46-0.75 141.42-0.4125-0.041-39.45-31.239-86.75-69.329zm-175.75-38.37c-3.72-1.72-246.58-201.04-246.69-202.48-0.032156-0.4125 114.47-0.75 254.44-0.75 139.98 0 254.48 0.3375 254.46 0.75-0.0921 1.5533-240.09 198.87-245.09 201.5-6.0807 3.2003-11.592 3.5139-17.113 0.97378z"/>
	</g>
</svg>
