<svg xmlns:rdf="http://www.w3.org/1999/02/22-rdf-syntax-ns#" xmlns="http://www.w3.org/2000/svg" height="512" width="512" version="1.1" xmlns:cc="http://creativecommons.org/ns#" xmlns:dc="http://purl.org/dc/elements/1.1/" viewBox="0 0 512.00001 512.00001">
	<g transform="translate(0 -540.36)">
		<path d="m186.3 1047.4c-4.6119-2.8121-6.3813-6.1015-7.31-13.59-0.45111-3.6375-0.97189-6.749-1.1573-6.9144-0.29111-0.2598-4.0702-1.8686-15.98-6.8028-2.2918-0.9494-3.0719-0.7341-5.8699 1.6202-5.6782 4.7779-9.2208 6.0637-15.852 5.7533-3.5496-0.1662-17.864-14.473-19.31-19.3-1.5243-5.0878 0.0136-10.094 4.8297-15.72 3.5126-4.1038 3.6329-4.4759 2.4087-7.4548-0.70866-1.7245-2.3116-5.8319-3.5621-9.1276l-2.2737-5.9922-7.2661-1.2166c-12.282-2.0564-15.608-7.3815-14.703-23.539 0.41921-7.4873 0.8696-9.2388 3.1418-12.218 2.6699-3.5004 5.3948-4.6819 14.509-6.2909 4.1925-0.74016 4.4927-1.024 6.1081-5.7764 0.93438-2.7489 2.6746-6.9105 3.867-9.248l2.1682-4.2499-4.1143-5.834c-4.9412-7.0066-5.6493-12.931-2.1353-17.866 3.9764-5.5843 14.852-14.958 18.111-15.609 4.0377-0.80754 9.867 1.1988 14.773 5.0845l3.8338 3.0364 6.3793-2.8958c3.5086-1.5927 8.108-3.4137 10.221-4.0467 4.0808-1.2226 4.3489-1.6777 5.3559-9.091 0.7803-5.744 4.2145-10.168 9.1609-11.8 5.477-1.8076 22.154-0.84275 25.664 1.4847 3.7078 2.4589 5.7461 6.618 6.4138 13.087 0.54052 5.2371 0.60343 5.3228 5.1661 7.034 2.5404 0.95277 7.1832 3.0111 10.317 4.5741 3.134 1.563 5.9471 2.4391 6.2513 1.9469 0.30419-0.49219 2.6546-2.2869 5.2232-3.9883 8.4601-5.6038 14.674-3.8373 24.737 7.0325 8.8985 9.6112 9.5012 15.423 2.5022 24.133-3.4717 4.32-3.4564 4.9201 0.36359 14.241 1.3524 3.3 2.7198 6.7627 3.0388 7.6948 0.34749 1.0154 2.1044 1.9444 4.3826 2.3174 2.0914 0.34241 5.0667 0.85884 6.6117 1.1476 1.545 0.28877 4.3109 2.0269 6.1465 3.8624 3.9878 3.9878 5.1228 9.8127 4.0801 20.94-0.5576 5.9504-1.2017 7.8902-3.5763 10.771-2.9711 3.6044-8.5339 5.767-14.835 5.767-2.2294 0-3.1653 0.57228-3.68 2.25-0.37961 1.2375-2.2777 5.7488-4.218 10.025l-3.5278 7.7752 2.0457 2.2248c5.9828 6.5067 7.7931 13.851 4.8278 19.585-2.2717 4.3931-15.027 15.861-18.487 16.621-4.4579 0.9792-8.5756-0.2103-13.374-3.8631-2.3163-1.7634-4.7116-3.5118-5.3229-3.8855-0.61132-0.3737-4.8863 0.8753-9.5 2.7757-4.6137 1.9003-8.9424 3.4633-9.6194 3.4734-1.25 0.019-1.7448 1.5651-2.6372 8.2421-0.72819 5.4488-2.6933 8.9063-6.5298 11.489-3.0102 2.0263-4.6074 2.2868-14 2.2835-8.7443 0-11.162-0.3451-13.798-1.9522zm29.2-66.46c10.038-4.1791 17.363-12.247 20.619-22.709 4.097-13.164 0.89185-25.954-8.9735-35.809-10.997-10.985-27.946-13.789-41.513-6.868-6.0408 3.0818-12.971 10.153-16.204 16.532-2.6284 5.1874-2.929 6.757-2.929 15.296 0 8.7348 0.26954 10.063 3.2868 16.197 8.3279 16.931 28.418 24.561 45.713 17.36zm164.83-33.652c-4.9979-1.4754-7.9827-5.9196-9.8491-14.665-0.91037-4.2658-1.8591-8.5027-2.1082-9.4154-0.28507-1.0444-2.3848-2.1132-5.6643-2.8833-2.8662-0.67306-8.0178-2.3342-11.448-3.6914l-6.2365-2.4677-6.6072 6.0543c-11.967 10.965-16.039 10.769-30.686-1.4784-17.281-14.45-17.984-17.321-7.9609-32.521l4.3829-6.6465-2.6916-4.2638c-1.4804-2.3451-3.9716-7.1167-5.5361-10.604l-2.8444-6.3397h-8.0216c-10.052 0-15.229-1.9158-18.21-6.7395-1.7841-2.8867-2.3711-6.0425-3.1902-17.15-0.55208-7.4866-0.67879-14.907-0.28158-16.49 1.271-5.0639 5.4124-8.1173 13.625-10.046 4.122-0.96779 8.2414-1.9606 9.1541-2.2063 1.0457-0.28148 2.1134-2.3744 2.8865-5.658 0.67483-2.8662 2.331-8.303 3.6804-12.082l2.4535-6.8704-3.9396-4.1296c-7.17-7.56-9.22-11-9.22-15.56 0-5.3803 0.74036-6.7161 9.6848-17.474 9.3041-11.19 11.413-12.83 17.173-13.347 4.6866-0.42121 5.8094 0.0656 17.789 7.7128 1.935 1.2352 2.8204 0.97896 9-2.6049 3.7696-2.1862 9.1585-5.0151 11.975-6.2864l5.1215-2.3115 0.70091-8.6383c0.93702-11.548 3.472-15.568 11.056-17.532 1.1-0.2849 7.5081-1.0112 14.24-1.6139 11.442-1.0244 12.537-0.96467 16.789 0.91616 5.0949 2.2537 7.744 6.7582 8.9949 15.295 0.9168 6.2566 1.9131 7.2626 8.9759 9.063 3.3 0.84123 8.7754 2.5755 12.168 3.8539l6.1675 2.3244 5.5261-5.2264c8.104-7.6644 12.574-8.8759 19.429-5.2658 4.8759 2.5678 21.327 16.939 22.992 20.084 2.319 4.3823 0.96671 11.173-3.6299 18.229-2.2835 3.5049-4.1519 6.7414-4.1519 7.1922 0 0.45082 1.3387 2.9954 2.975 5.6546 1.6362 2.6592 4.0691 7.434 5.4064 10.611l2.4315 5.7757 9.1372 0.58736c14.912 0.95859 17.226 3.9395 19.089 24.596 1.1048 12.248 1.0569 13.449-0.6751 16.935-2.6294 5.2922-6.1146 7.4569-15.068 9.3587l-7.7964 1.6561-2.1328 7.4349c-1.173 4.0892-2.8605 9.1766-3.75 11.305-0.88946 2.1288-1.6172 4.4944-1.6172 5.2571 0 0.76261 2.4915 4.0966 5.5366 7.409 7.7871 8.4704 9.1154 12.865 5.8167 19.244-2.7938 5.4026-18.01 22.331-21.295 23.692-4.849 2.0085-10.16 0.70207-18.145-4.4634l-7.269-4.7023-3.5721 2.1534c-1.9647 1.1844-7.2846 3.9065-11.822 6.0491l-8.25 3.8957-0.002 8.2958c-0.003 13.882-3.6568 18.378-16.09 19.794-13.826 1.5754-21.399 1.8596-24.575 0.92209zm26.188-84.989c27.632-12.994 34.071-49.438 12.546-71.012-7.8481-7.866-16.827-12.002-27.501-12.668-14.907-0.93004-24.524 2.5968-34.615 12.694-9.2803 9.2871-12.104 15.633-12.704 28.553-0.39213 8.4463-0.12633 10.997 1.7107 16.417 3.7281 11 11.803 20.395 21.947 25.535 7.432 3.7661 11.491 4.5224 22.115 4.1213 8.246-0.31135 10.455-0.79896 16.5-3.6415zm-277.02-17.35c-6.7603-3.0046-8.4987-7.1342-10.024-23.811-0.38841-4.2476-1.217-8.1076-1.8412-8.5778-0.62428-0.47017-3.385-1.6532-6.135-2.629s-8.5232-3.391-12.829-5.3671c-5.3653-2.4622-8.2442-3.2955-9.1477-2.648-0.72512 0.51969-5.2445 3.9394-10.043 7.5994-14.331 10.931-16.986 10.428-34.228-6.4769-13.871-13.6-16.525-17.222-16.525-22.552 0-4.7345 1.6013-7.7204 9.6448-17.985l6.5507-8.3594-2.6336-5.1406c-1.4485-2.8273-4.0502-8.7406-5.7816-13.141l-3.148-8-9.5399-1.1125c-14.394-1.68-16.249-2.18-19.083-5.15-4.2282-4.43-4.739-7.27-4.739-26.34 0-27.54 0.84159-28.69 22.912-31.29l9.4119-1.1076 2.6994-8c1.4847-4.4 4.0584-10.982 5.7193-14.626l3.0198-6.6262-5.9314-7.3738c-6.8116-8.4681-8.5369-11.372-8.8376-14.874-0.63722-7.4201-0.40859-7.79 13.625-22.048 7.49-7.6099 15.096-14.537 16.901-15.394 6.6194-3.1411 10.522-1.8307 22.209 7.4573l7.2285 5.7446 8.398-4.2147c4.6189-2.3181 11.572-5.2353 15.451-6.4826 7.8888-2.5366 7.2524-1.4093 8.7856-15.562 0.87044-8.0348 2.5172-11.718 6.6468-14.868l3.4505-2.6318h20.508c19.709 0 20.64 0.089 23.906 2.2873 4.6264 3.1143 5.981 6.4048 7.4771 18.162 0.70341 5.5278 1.3108 10.126 1.3498 10.219 0.039 0.0927 3.1084 1.1601 6.8209 2.372 3.7125 1.212 10.468 3.9988 15.013 6.193l8.2632 3.9894 5.5162-4.3614c13.23-10.461 16.42-11.51 23.933-7.873 5.2805 2.5562 26.99 24.488 28.998 29.296 3.024 7.2375 2.2147 9.5668-7.6983 22.158l-5.466 6.9426 3.7585 8.0574c2.0672 4.4316 4.5374 10.532 5.4894 13.557s2.0612 5.8728 2.4648 6.3285c0.40365 0.45565 5.5232 1.4575 11.377 2.2263 12.069 1.5851 13.521 2.1642 17.059 6.8031 2.5355 3.3242 2.5406 3.3735 2.5406 24.452v21.121l-3.0927 3.5224c-3.5101 3.9978-6.5302 5.0241-19.392 6.5902-4.9419 0.60172-9.0275 1.1757-9.0793 1.2755-0.0517 0.0998-1.1294 3.3315-2.3949 7.1815s-3.8173 10.026-5.6707 13.725c-1.8534 3.6988-3.3699 7.1252-3.3699 7.6142 0 0.48907 2.6487 4.2484 5.8859 8.354 13.324 16.898 12.964 18.725-7.6937 39.025-18.011 17.699-20.269 18.124-34.932 6.5885-4.2679-3.3576-8.2573-6.4888-8.8655-6.9584-0.66867-0.5163-4.4238 0.68847-9.5 3.0479-4.6168 2.1459-11.094 4.7224-14.394 5.7255s-6.2846 2.2271-6.6325 2.72c-0.34788 0.49288-0.92565 4.1051-1.2839 8.0272-2.1299 23.316-3.8578 24.652-31.801 24.592-12.994-0.0278-19.15-0.4248-21.282-1.3725zm36.369-99.041c18.614-4.9542 33.179-19.284 38.702-38.077 2.4617-8.3763 2.2455-21.979-0.4866-30.62-5.4944-17.377-21.46-32.133-39.324-36.344-30.727-7.2446-61.048 13.446-65.955 45.006-4.0039 25.754 13.227 52.304 38.694 59.622 7.4361 2.1368 21.144 2.3367 28.369 0.41383z"/>
	</g>
</svg>
