<svg xmlns:rdf="http://www.w3.org/1999/02/22-rdf-syntax-ns#" xmlns="http://www.w3.org/2000/svg" height="512" width="512" version="1.1" xmlns:cc="http://creativecommons.org/ns#" xmlns:dc="http://purl.org/dc/elements/1.1/" viewBox="0 0 512.00001 512.00001">
	<g transform="translate(0 -540.36)">
		<path d="m117 1050.9c-81.96-12.1-134.36-93.04-111.43-172.18 4.674-16.13 11.291-29.3 22.28-44.36 5.616-7.69 89.5-92.85 109.7-111.37 16.063-14.723 28.592-22.666 46.665-29.585 41.888-16.034 91.442-9.3087 127.78 17.342 12.304 9.023 24.253 21.623 31.532 33.249 2.4574 3.9248 4.4679 7.5661 4.4679 8.0918 0 1.5927-48.787 48.272-50.452 48.272-0.8515 0-1.5482-0.62289-1.5482-1.3842 0-2.5692-7.8846-17.08-11.908-21.915-22.152-26.623-60.364-32.264-89.6-13.227-6.2696 4.0824-97.211 93.632-109.2 107.53-21.824 25.297-22.929 60.832-2.7085 87.11 12.074 15.691 33.168 25.89 53.545 25.89 12.659 0 27.756-4.7369 38.557-12.097 2.6469-1.8037 13.659-12.008 24.47-22.676 17.303-17.073 19.893-19.27 21.623-18.344 3.9952 2.1381 23.4 7.0254 34.388 8.661 8.741 1.3011 15.657 1.5773 30.257 1.2088l18.927-0.47776-39.427 39.193c-37.6 37.38-46.84 45.58-60.41 53.78-12.39 7.4403-31.27 14.354-45.832 16.784-10.668 1.7798-31.378 2.0421-41.668 0.5276zm148.5-143.65c-39.512-4.1579-77.269-26.972-97.22-58.743l-4.6159-7.3504 24.458-24.4c22.41-22.35 27.88-26.87 27.88-23.01 0 2.5692 7.8846 17.08 11.908 21.915 8.4698 10.179 20.069 17.837 33.092 21.847 5.9882 1.8439 9.8181 2.3094 19 2.3094 17.713 0 29.75-4.379 44-16.007 3.575-2.9173 29.006-27.949 56.513-55.626 54.145-54.48 55.075-55.584 60.085-71.322 8.5797-26.951-0.97332-57.91-22.886-74.17-18.558-13.769-40.937-17.701-62.212-10.928-13.753 4.378-19.096 8.2812-41.651 30.422-18.136 17.804-20.945 20.195-22.65 19.283-4.1699-2.2317-23.964-7.1444-35.048-8.6987-8.736-1.225-16.246-1.5134-30.014-1.1527l-18.362 0.48109 31.362-31.462c48.04-48.2 57.25-56.15 75.86-65.53 46.052-23.204 101.4-18.282 142.53 12.675 52.556 39.557 69.277 110.93 39.727 169.58-9.9314 19.71-16.461 27.062-80.882 91.07-51.134 50.806-60.2 58.52-78.247 66.578-16.302 7.2796-28.427 10.59-45.015 12.293-11.523 1.1825-15.983 1.1747-27.605-0.0484z"/>
	</g>
</svg>
