<svg xmlns:rdf="http://www.w3.org/1999/02/22-rdf-syntax-ns#" xmlns="http://www.w3.org/2000/svg" height="512" viewBox="0 0 512 512" width="512" version="1.1" xmlns:cc="http://creativecommons.org/ns#" xmlns:dc="http://purl.org/dc/elements/1.1/">
	<path d="m53.131 322.52c-22.993-5.2-42.17-22.97-49.914-46.24-2.2315-6.71-2.5882-9.5-2.5882-20.28 0-10.777 0.35677-13.572 2.5883-20.278 10.072-30.26 36.918-48.91 68.283-47.43 24.796 1.1696 46.656 15.274 57.393 37.029 5.1566 10.449 7.0776 18.778 7.0776 30.685 0 11.908-1.921 20.237-7.0776 30.685-7.6123 15.425-22.856 28.62-39.178 33.914-10.197 3.3072-26.636 4.1693-36.584 1.9185zm187.87-0.07c-3.575-0.76562-10.756-3.4956-15.957-6.0667-22.57-11.15-37.01-34.71-37.01-60.38s14.447-49.239 37.008-60.376c20.75-10.243 41.163-10.243 61.914 0 22.561 11.137 37.008 34.706 37.008 60.376s-14.447 49.239-37.008 60.376c-5.2012 2.5675-12.607 5.3255-16.457 6.1288-8.6578 1.8065-20.912 1.7834-29.5-0.0557zm186.24-0.46107c-9.6797-2.5364-15.217-5.0817-22.75-10.457-8.9529-6.3887-16.752-15.458-21.411-24.9-5.1299-10.395-7.0505-18.739-7.0505-30.631 0-11.908 1.921-20.237 7.0776-30.685 18.008-36.49 65.58-48.579 99.453-25.273 11.675 8.0323 21.447 21.329 26.222 35.68 2.2316 6.7059 2.5883 9.501 2.5883 20.278s-0.35676 13.572-2.5883 20.278c-7.833 23.539-27.205 41.315-50.37 46.223-9.5028 2.0132-22.336 1.802-31.171-0.51297z"/>
</svg>
