<svg xmlns:rdf="http://www.w3.org/1999/02/22-rdf-syntax-ns#" xmlns="http://www.w3.org/2000/svg" height="512" width="512" version="1.1" xmlns:cc="http://creativecommons.org/ns#" xmlns:dc="http://purl.org/dc/elements/1.1/" viewBox="0 0 512.00001 512.00001">
	<g transform="translate(0 -540.36)">
		<path d="m1.655 1042.5c-2.3101-2.5526-2.373-17.31-0.083559-19.6 1.3828-1.3827 7.0619-1.5714 47.3-1.5714 34.233 0 46.03 0.3016 46.929 1.2 1.4962 1.4962 1.6259 17.136 0.16482 19.866-1.0003 1.8692-2.5776 1.9343-46.845 1.9343-43.11 0-45.907-0.1078-47.465-1.8288zm137.9-0.4c-1.06-1.5-1.56-4.5-1.56-9.2 0-4.7669 0.50488-7.7758 1.5567-9.2775l1.5567-2.2225h45.821c41.402 0 45.953 0.1594 47.193 1.6537 1.8883 2.2753 1.8883 17.417 0 19.693-1.2401 1.4942-5.7909 1.6537-47.193 1.6537h-45.821l-1.5567-2.2225zm138.64 1.0225c-1.628-1.628-1.628-18.972 0-20.6 0.89836-0.8984 12.699-1.2 46.943-1.2h45.743l1.5567 2.2225c1.0518 1.5017 1.5567 4.5106 1.5567 9.2775 0 4.7668-0.50488 7.7758-1.5567 9.2775l-1.5567 2.2225h-45.743c-34.245 0-46.045-0.3017-46.943-1.2zm137.84-0.7343c-1.4611-2.7301-1.3314-18.37 0.16482-19.866 0.89834-0.8984 12.695-1.2 46.929-1.2 40.238 0 45.917 0.1887 47.3 1.5714 2.4266 2.4266 2.2302 17.522-0.25731 19.774-1.6454 1.4891-6.4033 1.655-47.465 1.655-44.096 0-45.671-0.065-46.671-1.9343zm-372.64-53.14c-1.5987-1.7639-1.9582-3.9964-2.2361-13.887l-0.33116-11.785-9.1688 5.3759c-9.0834 5.3258-12.999 6.3616-16.653 4.4058-2.3296-1.2468-3.4926-6.2485-2.0706-8.9054 0.59293-1.1079 5.6172-4.6751 11.165-7.9271l10.087-5.9128-9.0741-5.1927c-9.306-5.31-13.123-8.88-13.123-12.24 0-2.6408 4.4241-6.822 7.2045-6.8089 1.2625 0.006 6.5086 2.481 11.658 5.5 5.1494 3.0191 9.5369 5.4892 9.75 5.4892 0.21306 0 0.38737-4.4328 0.38737-9.8508 0-5.4179 0.47921-11.225 1.0649-12.906 2.0913-5.9992 10.19-6.3695 12.825-0.58634 0.611 1.34 1.111 7.14 1.111 12.89 0 5.7491 0.18951 10.453 0.42113 10.453s4.3657-2.2781 9.1869-5.0624c11.187-6.4607 13.472-6.9488 16.826-3.5948 3.0135 3.0134 3.3119 6.9116 0.72703 9.4964-1.0116 1.0116-5.724 4.0491-10.472 6.75s-8.6454 5.2399-8.6607 5.6422c-0.01539 0.40233 3.4375 2.6523 7.673 5 12.846 7.1203 16.107 11.96 11.299 16.768-3.2687 3.2687-7.2738 2.4805-17.553-3.4543l-9.447-5.46v11.319c0 9.9374-0.25306 11.641-2.0726 13.954-2.6305 3.3441-7.7401 3.6029-10.522 0.53301zm139.04 0.68565c-1.69-1.24-2-3.04-2.44-13.99l-0.5-12.57-9.5 5.4562c-10.181 5.8473-14.55 6.7761-17.345 3.6876-1.956-2.1613-2.1714-7.1402-0.40499-9.3592 0.6875-0.86362 5.3-3.9246 10.25-6.8021s9.1487-5.3681 9.3305-5.5347c0.18175-0.16657-3.6432-2.6388-8.5-5.4938s-9.618-5.8886-10.58-6.7412c-3.9742-3.5206-0.81382-12.24 4.4363-12.24 1.2025 0 6.5575 2.475 11.9 5.5 5.3426 3.025 9.9838 5.5 10.314 5.5 0.32993 0 0.59988-5.3673 0.59988-11.927 0-11.694 0.0515-11.968 2.6349-14 3.4602-2.7218 5.912-2.6167 8.9106 0.38197 2.3226 2.3226 2.4546 3.0752 2.4546 14 0 6.35 0.26946 11.545 0.59879 11.545s4.4918-2.2943 9.25-5.0984c10.404-6.1316 14.06-6.9928 17.039-4.0142 2.2619 2.2619 2.7325 6.0857 1.1198 9.099-0.54601 1.0202-5.0373 4.1694-9.9806 6.9983-4.9433 2.8288-9.1988 5.4848-9.4568 5.9021-0.25792 0.41733 3.5275 3.0898 8.412 5.9388s9.5868 5.8859 10.45 6.7486c2.1473 2.1473 1.9988 7.7264-0.26018 9.7707-3.1118 2.8162-7.1826 1.9189-17.171-3.7848l-9.5-5.4247-0.28365 11.654c-0.25092 10.309-0.53069 11.917-2.4243 13.932-2.4275 2.5839-6.4792 2.9576-9.3509 0.86243zm137.77-0.86243c-1.8936-2.0157-2.1734-3.6235-2.4243-13.932l-0.29-11.66-9.5 5.42c-10.175 5.81-14.534 6.7175-17.345 3.611-2.0925-2.3122-2.1396-7.5438-0.0864-9.597 0.8627-0.8627 5.565-3.8996 10.45-6.7486 4.8845-2.849 8.6699-5.5215 8.412-5.9388-0.25793-0.41733-4.5135-3.0733-9.4568-5.9021s-9.4345-5.9781-9.9806-6.9983c-1.6127-3.0133-1.1421-6.8371 1.1198-9.099 2.9786-2.9786 6.6343-2.1174 17.039 4.0142 4.7582 2.8041 8.9207 5.0984 9.25 5.0984 0.32933 0 0.59879-5.1954 0.59879-11.545 0-10.925 0.13195-11.677 2.4546-14 2.9986-2.9986 5.4504-3.1037 8.9106-0.38197 2.5857 2.0339 2.6349 2.2971 2.6349 14.107 0 9.4547 0.27827 11.928 1.2981 11.536 0.71397-0.27398 5.3076-2.7971 10.208-5.607 9.5388-5.4694 11.787-5.9924 15.271-3.5522 1.6316 1.1428 2.2225 2.5639 2.2225 5.345 0 4.3616-0.79178 5.1991-10 10.578-12.769 7.4588-12.586 5.9126-1.4794 12.532 5.3645 3.1974 10.135 6.4151 10.601 7.1506 1.4845 2.342 0.95489 7.4578-0.95054 9.1822-3.0884 2.795-7.186 1.8736-17.171-3.8613l-9.5-5.4562-0.5 12.57c-0.43554 10.95-0.75024 12.753-2.4411 13.986-2.8718 2.0952-6.9234 1.7215-9.3509-0.86243zm138.2 0.17856c-1.58-1.74-2-4.16-2.41-13.93l-0.5-11.826-9 5.381c-9.931 5.9376-14.189 6.7821-17.5 3.4709-2.379-2.379-2.5695-5.7419-0.49321-8.7062 0.82873-1.1832 5.5537-4.4671 10.5-7.2977 4.9463-2.8305 8.9917-5.4501 8.99-5.8213-0.002-0.37117-3.9375-2.9248-8.7459-5.6748-10.33-5.91-12.25-7.65-12.25-11.05 0-3.1743 4.1462-7.4581 7.2046-7.4437 1.2625 0.006 6.5086 2.481 11.658 5.5 5.1494 3.0191 9.5369 5.4892 9.75 5.4892 0.21305 0 0.38737-4.6957 0.38737-10.435 0-12.007 0.89437-15.194 4.6659-16.628 3.167-1.2041 7.7526 0.28486 8.9456 2.9046 0.41538 0.91214 1.0102 6.7163 1.3218 12.898l0.56662 11.24 9.5-5.4832c5.225-3.0158 10.533-5.4861 11.795-5.4896 1.2625-0.004 3.4 1.0982 4.75 2.4482 4.9991 4.9991 2.7747 8.526-10.189 16.156l-9.5289 5.608 9.3364 5.3637c13.081 7.515 15.025 10.366 10.764 15.783-3.137 3.9881-6.6626 3.4264-17.399-2.7723l-9.3654-5.4072-0.33163 11.805c-0.27839 9.91-0.63746 12.143-2.2366 13.907-2.5219 2.7825-7.6668 2.7834-10.19 0.002zm-301.18-148.02c-2.3499-1.1632-5.6278-3.7503-7.2844-5.7492-6.043-7.292-6.025-7.0356-5.7202-81.733l0.28-67.91 2.5-4.99c3.1047-6.2002 9.249-10.966 16.006-12.415 3.4086-0.73102 28.423-1.0921 75.658-1.0921h70.566l-0.47673-20.25c-0.4101-17.42-0.77621-21.077-2.6194-26.169-3.9003-10.775-11.546-20.248-21.686-26.868-11.33-7.397-29.028-9.2602-41.709-4.3908-10.377 3.9846-19.214 11.012-25.603 20.358-3.6349 5.3179-7.2712 16.38-8.1112 24.677-1.1672 11.527-1.8969 12.054-17.282 12.482-13.487 0.3746-19.072-0.71432-20.867-4.0687-1.5688-2.9314-0.44552-19.21 1.9524-28.293 8.7795-33.255 35.259-58.167 69.121-65.028 11.032-2.2354 29.327-1.5535 39.871 1.486 31.998 9.2238 56.958 36.596 63.696 69.853 0.98755 4.8737 1.9415 16.126 2.3279 27.459l0.65467 19.201 4.4144 0.75157c9.1279 1.5541 16.205 8.8819 18.068 18.71 1.3403 7.0675 1.3713 129.95 0.0346 137-1.3862 7.3094-5.8316 13.322-12.193 16.492l-5.2169 2.5997-96.054-0.00079c-95.778-0.00078-96.066-0.007-100.33-2.1156zm109.74-39.398c2.4854-2.4835 2.535-2.8331 2.8648-20.205l0.33564-17.678 4.336-4.8227c13.073-14.54 3.2583-36.678-16.297-36.759-12.129-0.0504-21.677 9.6756-21.574 21.978 0.0524 6.2846 1.8265 10.294 7.1704 16.205l3.6934 4.0851 0.5 17.754c0.44157 15.68 0.72421 18.002 2.4187 19.87 4.1079 4.5304 11.788 4.3316 16.552-0.42847z"/>
	</g>
</svg>
