<svg xmlns:rdf="http://www.w3.org/1999/02/22-rdf-syntax-ns#" xmlns="http://www.w3.org/2000/svg" height="512" width="512" version="1.1" xmlns:cc="http://creativecommons.org/ns#" xmlns:dc="http://purl.org/dc/elements/1.1/" viewBox="0 0 511.99999 511.99999">
	<g transform="translate(0 -540.36)">
		<path d="m133 1051.4c-23.147-4.1097-41.695-20.375-50.168-43.993l-2.3319-6.5-0.27466-134.25-0.27466-134.25h176.05 176.05l-0.27445 134.25-0.27445 134.25-2.6794 7.3349c-3.8528 10.547-8.399 17.752-15.879 25.165-7.5856 7.5177-14.769 12.044-25.106 15.821l-7.34 2.7-121.5 0.1c-66.825 0.08-123.52-0.2137-126-0.6531zm51.763-65.665c1.4376-1.0733 3.5415-3.1941 4.6755-4.713 2.0508-2.7468 2.0618-3.3037 2.0618-104.61s-0.011-101.87-2.0618-104.61c-3.9179-5.2476-7.114-6.8851-13.438-6.8851s-9.5201 1.6374-13.438 6.8848c-2.0453 2.7392-2.0641 3.5556-2.3508 101.94-0.15895 54.547-0.0285 100.63 0.28979 102.4 0.71602 3.9842 4.8968 9.0894 8.9496 10.928 4.0473 1.8364 12.003 1.1501 15.312-1.3209zm80 0c1.4376-1.0733 3.5415-3.1941 4.6755-4.713 2.0508-2.7468 2.0618-3.3037 2.0618-104.61s-0.011-101.87-2.0618-104.61c-3.9179-5.2476-7.114-6.8851-13.438-6.8851s-9.5201 1.6374-13.438 6.8848c-2.0453 2.7392-2.0641 3.5556-2.3508 101.94-0.15895 54.547-0.0285 100.63 0.28979 102.4 0.71602 3.9842 4.8968 9.0894 8.9496 10.928 4.0473 1.8364 12.003 1.1501 15.312-1.3209zm80 0c1.4376-1.0733 3.5415-3.1941 4.6755-4.713 2.0508-2.7468 2.0618-3.3037 2.0618-104.61s-0.011-101.87-2.0618-104.61c-3.9179-5.2476-7.114-6.8851-13.438-6.8851s-9.5201 1.6374-13.438 6.8848c-2.0453 2.7392-2.0641 3.5556-2.3508 101.94-0.15895 54.547-0.0285 100.63 0.28979 102.4 0.71602 3.9842 4.8968 9.0894 8.9496 10.928 4.0473 1.8364 12.003 1.1501 15.312-1.3209zm-272.32-286.31c-4.7763-1.1536-13.349-6.1746-16.076-9.4156-1.36-1.6162-3.6852-5.237-5.1673-8.046l-2.695-5.11v-24.5-24.5l3.4167-6.3014c3.795-6.999 6.9098-10.012 14.476-14.004l5.107-2.7 52.162-0.29165 52.162-0.29165 0.33829-20.208 0.3383-20.208 3.4167-6.3014c3.795-6.999 6.9098-10.012 14.476-14.004l5.1074-2.6946h56.5 56.5l6.3014 3.4167c7.0088 3.8003 10.029 6.9264 13.987 14.476 2.6021 4.9639 2.6874 5.6753 3.0329 25.316l0.35554 20.208 52.162 0.29165 52.162 0.29165 5.1074 2.6946c7.5661 3.9917 10.681 7.005 14.476 14.004l3.4167 6.3014v24.5 24.5l-3.4167 6.3014c-3.795 6.999-6.9098 10.012-14.476 14.004l-5.12 2.7-182.5 0.16c-100.38 0.08-183.88-0.18-185.56-0.59zm231.4-106c-0.36574-11.81-1.2346-14.036-7.2236-18.508-2.6754-1.9974-3.943-2.0618-40.615-2.0618s-37.94 0.0643-40.615 2.0618c-5.989 4.4715-6.8579 6.6975-7.2236 18.508l-0.33847 10.93h48.177 48.177l-0.33847-10.93z"/>
	</g>
</svg>
