<svg xmlns:rdf="http://www.w3.org/1999/02/22-rdf-syntax-ns#" xmlns="http://www.w3.org/2000/svg" height="512" width="512" version="1.1" xmlns:cc="http://creativecommons.org/ns#" xmlns:dc="http://purl.org/dc/elements/1.1/" viewBox="0 0 512.00001 512.00001">
	<g transform="translate(0 -540.36)">
		<path d="m51 854.36v-198h124.1 124.1l28.402 27.656 28.402 27.656v170.34 170.34h-152.5-152.5v-198zm278 21v-151h-22-22v-21-21h-104-104v172 172h126 126v-151zm-216.25 103.24c-5.9257-3.674-5.8532-13.979 0.12319-17.509 2.7212-1.6074 9.0699-1.7332 87.514-1.7332h84.58l3.2658 2.918c2.8038 2.5052 3.2658 3.5777 3.2658 7.582s-0.46196 5.0768-3.2658 7.582l-3.2658 2.918-84.734-0.0266c-78.061-0.0245-84.951-0.16082-87.483-1.7308zm4.4612-46.737c-4.5244-1.982-6.8374-7.4762-5.3033-12.597 2.205-7.3597-3.7602-6.9084 91.333-6.9084 93.489 0 88.127-0.35123 90.734 5.9435 1.6759 4.046 0.58965 9.1758-2.5721 12.147l-2.5649 2.4099-84.17 0.22265c-71.423 0.18894-84.668 0.005-87.457-1.2175zm-2.4536-51.853c-3.4004-3.1514-4.2532-7.5338-2.3516-12.085 2.8853-6.9055-1.1098-6.632 92.52-6.3343l83.912 0.26674 2.565 2.4099c3.1618 2.9707 4.2481 8.1005 2.5722 12.147-2.6077 6.2956 2.7856 5.9435-91.053 5.9435h-85.631l-2.5331-2.3476zm1.3579-45.283c-3.137-2.1973-5.2379-7.5143-4.4754-11.327 0.33899-1.695 1.9429-4.198 3.5642-5.5622l2.9478-2.4804h84.958c93.392 0 88.262-0.34047 90.901 6.0321 1.7646 4.2602 0.47593 9.3785-3.124 12.408l-3.0427 2.5603h-84.701c-76.688 0-84.921-0.15426-87.029-1.6307zm0.23622-50.286c-4.1134-2.5206-5.9469-7.7537-4.3801-12.501 2.3072-6.9909-3.3642-6.5819 91.269-6.5819 93.489 0 88.127-0.35123 90.734 5.9435 1.6759 4.0461 0.58964 9.1758-2.5722 12.147l-2.565 2.4099-84.67 0.25575c-82.107 0.24801-84.765 0.19738-87.817-1.6726zm252.64 193.92v-13h6 6v-151-151h-22-22v-20.5-20.5h-104-104v9.5 9.5h-13.5-13.5v-23-23l124.25 0.0233 124.25 0.0233 28.25 27.57 28.25 27.57v170.41 170.41h-19-19v-13zm54-55v-13h6 6v-151-151h-22-22v-21-21h-104-104v10 10h-13.5-13.5v-23-23h124.26 124.26l28.236 27.25 28.236 27.25 0.00008 170.75 0.00007 170.75h-19-19v-13z"/>
	</g>
</svg>
