<svg xmlns:rdf="http://www.w3.org/1999/02/22-rdf-syntax-ns#" xmlns="http://www.w3.org/2000/svg" height="512" width="512" version="1.1" xmlns:cc="http://creativecommons.org/ns#" xmlns:dc="http://purl.org/dc/elements/1.1/" viewBox="0 0 511.99999 511.99999">
	<g transform="translate(0 -540.36)">
		<path d="m378.76 1049.3c-0.82069-1.3223-7.4802-12.754-14.799-25.404-12.281-21.226-24.615-42.458-33.986-58.5-21.72-37.21-34.98-60.3-34.98-60.94 0-0.42643 1.9844-0.85038 4.4098-0.94212 13.368-0.50565 25.382-8.1291 34.59-21.951 5.9712-8.9624 9.3456-11.731 18.403-15.098 5.2639-1.9572 26.021-6.1085 30.542-6.1085 1.2697 0 6.6087 9.0759 19.56 33.25 9.7974 18.288 19.271 35.95 21.053 39.25 22.276 41.259 37.58 70.008 37.742 70.9 0.11005 0.6051-0.4749 1.009-1.2999 0.8975-33.624-4.5463-57.435-7.2606-58.071-6.6198-0.44901 0.45243-5.162 12.073-10.473 25.823-5.3114 13.75-10.006 25.632-10.432 26.404-0.60706 1.0995-1.0988 0.8826-2.2674-1zm-250.26-25.1c-8.8-13.254-16.279-24.537-16.62-25.074-0.39304-0.61882-9.1748-0.0262-24 1.6194-12.859 1.4275-26.682 2.8901-30.717 3.2502l-7.3372 0.6547 9.9463-19.402c5.4705-10.671 18.617-36.502 29.214-57.402s23.295-45.773 28.219-55.274l8.9514-17.274 2.9697 2.4989c3.7364 3.144 11.698 5.5482 18.373 5.5482 7.4729 0 16.259 1.8357 22.188 4.6357 5.4762 2.5861 11.708 8.8957 20.08 20.33 5.6005 7.6491 11.517 11.606 19.915 13.319l6.0725 1.2387-9.6754 19.988c-5.3214 10.994-21.092 43.726-35.045 72.738-13.953 29.013-25.632 52.739-25.951 52.726-0.31977-0.013-7.7814-10.868-16.581-24.122zm82-136.78c-7.0837-1.7501-11.452-5.3898-17.494-14.576-1.8089-2.75-5.1376-6.9529-7.3972-9.3398-9.2592-9.7808-18.19-13.727-34.326-15.166-21.319-1.9013-27.381-7.9539-29.266-29.222-1.7111-19.305-8.3569-30.903-23.516-41.041-12.306-8.2292-15.899-13.47-15.927-23.232-0.01416-4.9411 0.71387-7.5883 4.1253-15 9.6293-20.921 9.72-29.921 0.50544-50.161-2.2134-4.8617-4.3364-10.794-4.7178-13.183-1.5265-9.5605 3.3973-17.641 15.887-26.072 15.918-10.746 21.826-21.051 23.589-41.146 1.0961-12.49 3.4009-18.438 8.912-22.996 4.4492-3.6803 11.67-5.9371 19.058-5.9567 3.0627-0.008 8.3896-0.67992 11.838-1.4929 12.91-3.0439 21.831-9.553 30.315-22.12 8.3636-12.389 16.524-17.384 26.229-16.053 2.3565 0.32299 8.2414 2.4066 13.077 4.6304 20.093 9.2389 29.37 9.2436 49.255 0.0253 18.456-8.5563 27.61-5.8794 39.341 11.504 10.392 15.401 24.942 23.521 42.146 23.521 11.552 0 20.727 4.9457 24.805 13.371 1.4129 2.9186 2.4323 7.8266 3.064 14.751 0.52068 5.7075 1.4592 12.177 2.0856 14.377 3.139 11.024 9.9718 19.774 21.54 27.584 12.452 8.4061 17.468 16.631 15.954 26.161-0.37181 2.3402-2.4332 8.0799-4.5809 12.755-9.2313 20.094-9.1778 30.132 0.26943 50.5 3.4503 7.4389 4.1714 10.041 4.1572 15-0.028 9.7617-3.6211 15.003-15.927 23.232-10.459 6.9941-17.189 15.467-21.107 26.572-0.77582 2.1989-1.8369 8.8562-2.358 14.794-0.98015 11.169-3.456 18.268-7.7134 22.114-3.9636 3.5811-11.232 5.8578-21.614 6.77-19.312 1.6967-30.391 8.0596-40.675 23.36-8.2329 12.249-13.823 16.019-23.65 15.953-5.0986-0.0346-7.7906-0.80808-16.153-4.6413-19.653-9.0086-28.81-8.984-48.889 0.13119-9.2414 4.1953-15.779 5.5414-20.839 4.2912zm71-74.035c19.193-5.2447 33.205-13.509 47.5-28.013 14.546-14.76 23.403-31.456 27.542-51.922 2.556-12.639 1.6401-34.464-1.9559-46.606-5.4263-18.322-14.158-32.902-27.351-45.667-22.236-21.515-50.252-31.486-80.621-28.695-52.614 4.8366-92.587 48.813-92.587 101.86 0 47.585 32.525 88.754 78.474 99.33 10.921 2.5136 11.156 2.5332 26.5 2.2062 11.066-0.23585 16.395-0.82674 22.5-2.4952zm-64.126-57.658 3.9878-23.689-16.931-16.239c-9.3121-8.9317-16.7-16.482-16.417-16.778 0.28283-0.29617 10.858-2.0462 23.5-3.8889l22.99-3.32 10.45-21.22c5.7475-11.67 10.711-21.219 11.031-21.219 0.31934 0 5.2834 9.5041 11.031 21.12 5.7478 11.616 10.909 21.255 11.469 21.42 0.56028 0.16504 11.344 1.7745 23.964 3.5766l22.946 3.2765-17.333 16.75-17.333 16.75 3.6785 21.803c2.0232 11.992 3.9286 22.632 4.2342 23.645 0.79283 2.6278 0.23158 2.3936-21.79-9.0919-10.809-5.6375-20.19-10.25-20.847-10.25-0.65709 0-10.038 4.6125-20.847 10.25s-20.128 10.379-20.709 10.536c-0.63249 0.17125 0.54426-9.2244 2.9311-23.403z"/>
	</g>
</svg>
