<svg xmlns:rdf="http://www.w3.org/1999/02/22-rdf-syntax-ns#" xmlns="http://www.w3.org/2000/svg" height="512" width="512" version="1.1" xmlns:cc="http://creativecommons.org/ns#" xmlns:dc="http://purl.org/dc/elements/1.1/" viewBox="0 0 511.99999 511.99999">
	<g transform="translate(0 -540.36)">
		<path d="m53.951 1021.1c-13.561-3.9-22.262-15.2-22.388-29.24-0.13-14.41-18.574 5.26 203.27-216.72 220.96-221.09 202.91-204.12 217.19-204.21 6.3982-0.0395 8.3874 0.39363 13.359 2.9093 10.671 5.399 16.913 15.294 17.045 27.018 0.16129 14.396 18.617-5.2829-203.25 216.72-166.11 166.21-200.4 200.02-204.35 201.72-6.099 2.6237-15.056 3.3601-20.871 1.7159zm179.55-73.77c-13.046-1.0671-27.138-3.1662-41.312-6.1535l-10.312-2.1734 23.22-23.236 23.22-23.236 18.592 0.55059c34.407 1.019 63.201-3.636 95.512-15.441 22.29-8.1436 50.436-24.308 70.184-40.308 8.43-6.84 30.39-28.55 30.39-30.05 0-1.5727-23.154-24.173-31.899-31.137-9.8484-7.842-22.696-16.604-32.78-22.355l-7.1786-4.0946 19.688-19.669c10.828-10.818 20.154-19.669 20.724-19.669 0.5697 0 5.5156 2.9851 10.991 6.6336 31.182 20.779 54.824 43.599 79.344 76.588l10.199 13.722-10.196 13.778c-32.77 44.28-67 73.19-113.89 96.21-30.689 15.061-60.556 24.007-95.204 28.517-14.76 1.9215-44.913 2.6922-59.296 1.5156zm-153.5-56.1c-26.582-19.06-47.789-40.33-69.887-70.08l-10.182-13.71 8.9488-12.29c28.365-38.95 59.715-67.34 98.62-89.31 59.219-33.428 126.8-46 193-35.903 5.5 0.8389 10.652 1.7472 11.45 2.0183 0.95051 0.32325-11.937 13.883-37.418 39.371l-38.868 38.877-3.1507-2.4032c-12.541-9.5653-31.037-6.147-39.574 7.3136-5.9302 9.3509-5.8555 20.255 0.204 29.81l3.0203 4.7625-15.926 15.926-15.926 15.926-3.0955-9.34c-3.9325-11.865-5.1997-19.767-5.2092-32.48-0.009-11.467 1.9884-23.503 5.5084-33.201 1.3149-3.6224 2.2057-6.7713 1.9795-6.9974-0.22614-0.22614-7.3219 2.9758-15.768 7.1155-26.207 12.845-55.323 34.256-72.072 53l-6.8452 7.6608 5.232 6.0154c10.342 11.891 31.002 29.336 47.324 39.962l6.7837 4.4161-19.815 19.834c-10.894 10.92-19.815 19.83-19.821 19.82-0.005-0.01-3.834-2.76-8.509-6.11zm165.23-11.751c-3.2594-0.61717-3.1571-0.72695 53.104-56.969 43.181-43.166 56.521-55.957 57.016-54.668 0.96995 2.5277 0.73944 20.097-0.36375 27.725-4.1826 28.919-23.443 56.844-49.388 71.605-16.974 9.6575-44.608 15.291-60.368 12.307z"/>
	</g>
</svg>
