<svg xmlns:rdf="http://www.w3.org/1999/02/22-rdf-syntax-ns#" xmlns="http://www.w3.org/2000/svg" height="512" width="512" version="1.1" xmlns:cc="http://creativecommons.org/ns#" xmlns:dc="http://purl.org/dc/elements/1.1/" viewBox="0 0 512.00001 512.00001">
	<g transform="translate(0 -540.36)">
		<path d="m83 1050.7c-18.391-2.7-30.485-6.3-41.824-12.4-21.58-11.6-34.861-28-39.546-48.64-1.4569-6.43-1.63-19.71-1.63-125.09 0-113.29 0.075525-118.18 1.9346-125.45 5.5971-21.89 20.605-38.64 44.74-49.95 19.318-9.06 34.446-10.8 93.575-10.81l39.75-0.002v25.5 25.5l-46.25 0.0174c-51.631 0.0194-54.925 0.33646-67.435 6.492-8.9556 4.4067-14.951 10.786-15.813 16.826-0.32706 2.2903-0.46134 54.339-0.29841 115.66l0.29624 111.5 2.4083 3.8741c5.0453 8.1162 19.774 14.979 35.755 16.661 5.0556 0.5319 76.662 0.9297 167.34 0.9297 90.675 0 162.28-0.3978 167.34-0.9297 15.98-1.6812 30.709-8.5444 35.755-16.661l2.4082-3.8741 0.29624-111.5c0.16294-61.325 0.0287-113.37-0.2984-115.66-0.86261-6.0406-6.8575-12.42-15.813-16.826-12.51-6.1556-15.803-6.4726-67.435-6.492l-46.25-0.0174v-25.5-25.5h40.355c22.195 0 46.041 0.46174 52.991 1.0261 38.572 3.1322 67.76 20.605 80.735 48.332 6.0481 12.924 5.8833 9.087 5.9023 137.44 0.0155 104.87-0.1554 118.07-1.6132 124.5-6.6616 29.405-30.34 49.773-69.045 59.393-6.2712 1.5587-20.965 1.7107-181.32 1.8762-95.975 0.099-175.62 0.013-177-0.1902zm162.45-143.81c-6.6254-3.311-83.114-79.802-86.525-86.528-3.0956-6.1042-3.1587-15.808-0.14052-21.634 4.4523-8.5954 11.732-13.438 21.285-14.159 9.7495-0.73579 13.138 1.474 33.469 21.829 9.8692 9.8806 18.28 17.965 18.69 17.965 0.41036 0 0.86505-59.962 1.0104-133.25l0.26431-133.25 2.6571-4.0829c11.147-17.129 34.496-16.035 44.193 2.0698l2.1495 4.0131 0.2681 131.4 0.26811 131.4 17.732-17.479c19.162-18.888 22.17-20.835 32.16-20.814 8.8713 0.0189 19.123 7.0808 22.697 15.635 1.8315 4.3834 1.7466 14.519-0.16041 19.137-2.1125 5.1156-82.365 85.672-87.965 88.298-6.0231 2.8246-15.786 2.5802-22.054-0.55213z"/>
	</g>
</svg>
