<svg xmlns:rdf="http://www.w3.org/1999/02/22-rdf-syntax-ns#" xmlns="http://www.w3.org/2000/svg" height="512" width="512" version="1.1" xmlns:cc="http://creativecommons.org/ns#" xmlns:dc="http://purl.org/dc/elements/1.1/" viewBox="0 0 512.00001 512.00001">
	<g transform="translate(0 -540.36)">
		<path d="m62.5 1050.5c-1.65-1.0664-11.212-10.23-21.25-20.364l-18.25-18.4v-4.9357-4.9358l198.25-198.25 198.25-198.25h4.9388 4.9388l19.254 19.163c10.59 10.539 19.78 20.432 20.423 21.983 2.866 6.9191 13.265-3.9687-197.88 207.18-186.38 186.38-198.05 197.85-201.75 198.3-2.8132 0.3447-4.779-0.069-6.9277-1.4577zm86.5-3.8236c-13.705-8.25-28-17.551-28-18.218 0-0.3622 4.9018-5.5451 10.893-11.518l10.893-10.859 0.67586 3.3762c1.4092 7.0396 6.7849 23.344 10.586 32.109 2.1737 5.0117 3.9522 9.2596 3.9522 9.4397 0 0.8393-2.0559-0.1498-9-4.3299zm189.26 3.6064c17.647-40.937 22.524-64.944 21.476-105.73-0.55852-21.744-2.2747-34.655-7.1772-53.995-5.0528-19.933-15.656-47.026-23.93-61.143l-3.4046-5.809 54.677-54.671 54.677-54.671 5.6167 9.7849c34.81 60.642 45.827 121.46 31.882 176-6.0772 23.77-17.712 46.877-35.389 70.284-9.1502 12.116-31.007 34.062-45.187 45.37-17.933 14.302-54.832 38.266-53.242 34.578zm-294-105.08c-6.8746-16.762-9.2275-27.699-9.9727-46.36-1.1172-27.973 4.599-56.463 17.14-85.428 2.007-4.6352 9.8884-21.285 17.514-37 14.493-29.866 19.194-40.904 23.455-55.072 2.9484-9.8039 5.589-22.926 5.6345-28l0.03138-3.5 2.3801 3.8732c3.3228 5.4071 10.025 22.601 12.472 31.996 2.2784 8.748 4.6272 25.191 5.6561 39.596l0.67601 9.4645 2.4292-2.9645c1.3361-1.6304 7.7306-9.9394 14.21-18.464 35.851-47.169 58.63-87.891 71.47-127.77 8.4588-26.269 11.17-44.154 10.423-68.764l-0.49497-16.318 5.6081 2.4754c41.271 18.217 80.778 58.125 106.69 107.78l6.691 12.819-144.49 144.49-144.5 144.5-3.02-7.36z"/>
	</g>
</svg>
