<svg xmlns:rdf="http://www.w3.org/1999/02/22-rdf-syntax-ns#" xmlns="http://www.w3.org/2000/svg" height="512" width="512" version="1.1" xmlns:cc="http://creativecommons.org/ns#" xmlns:dc="http://purl.org/dc/elements/1.1/" viewBox="0 0 511.99999 511.99999">
	<g transform="translate(0 -540.36)">
		<path d="m78 1003.8c-35.438-5.6-65.681-33.52-75.238-69.44l-2.2616-8.5v-129.5-129.5l2.2559-8.5c8.2718-31.167 33.24-57.52 63.277-66.786 12.456-3.8422 22.635-4.3465 81.195-4.0226l55.728 0.30819 2.7722 2.7699c2.7144 2.7121 2.7782 3.0459 3.061 16 0.31925 14.626-0.85781 18.988-5.7888 21.451-1.9103 0.95452-15.95 1.2526-59.522 1.2639-63.705 0.0165-64.343 0.0762-76.042 7.1202-6.807 4.0985-15.941 13.631-19.654 20.51-6.029 11.16-5.79 5.4-5.79 139.38s-0.23741 128.26 5.7829 139.36c5.852 10.789 18.511 21.626 29.643 25.377 4.4839 1.5108 11.995 1.771 64.574 2.2365 57.215 0.50655 59.623 0.60337 62.709 2.5213 2.7479 1.7081 3.3027 2.7475 3.8638 7.2389 1.019 8.1559 0.0524 25.432-1.5636 27.945-0.77057 1.1984-2.459 2.6609-3.752 3.25-3.6862 1.6795-114.32 1.2644-125.26-0.47zm226.5-11.12c-4.0933-2.158-7.3685-5.2556-9.345-8.8384-1.4585-2.6438-1.7144-8.9955-2.155-53.5l-0.5-50.5-77.078-0.5-77.078-0.5-3.6019-2.7477c-1.981-1.5112-4.6458-4.2112-5.9216-6l-2.3197-3.2523v-70.5-70.5l2.3197-3.2523c1.2758-1.7888 3.9406-4.4888 5.9216-6l3.6019-2.7477 77.078-0.5 77.078-0.5 0.5-50.5c0.54219-54.762 0.39898-53.397 6.155-58.633 6.2044-5.6435 16.51-7.1425 23.635-3.4377 2.0913 1.0875 43.707 41.994 95.377 93.75 96.735 96.898 93.822 93.722 93.822 102.32 0 8.5991 2.9122 5.4231-93.822 102.32-51.669 51.756-93.285 92.663-95.377 93.75-4.5954 2.3897-14.004 2.5274-18.29 0.26768z"/>
	</g>
</svg>
