<svg xmlns:rdf="http://www.w3.org/1999/02/22-rdf-syntax-ns#" xmlns="http://www.w3.org/2000/svg" height="512" width="512" version="1.1" xmlns:cc="http://creativecommons.org/ns#" xmlns:dc="http://purl.org/dc/elements/1.1/" viewBox="0 0 512.00001 512.00001">
	<g transform="translate(0 -540.36)">
		<path d="m0 957.36v-9h159 159v9 9h-159-159v-9zm323.21-0.0285 0.28914-9.2726 89-40.314c48.95-22.173 89.338-40.33 89.75-40.349 0.4125-0.0194 0.75 3.9425 0.75 8.8042 0 8.6653-0.0542 8.8648-2.75 10.123-5.2339 2.4428-174.76 79.258-176.04 79.769-1.0083 0.40104-1.2262-1.507-1-8.7598zm-321.13-16.36c0.2292-0.22 26.842-11.03 59.14-24.02l58.723-23.622 14.277 4.4108c34.669 10.711 73.035 18.725 108.28 22.617 19.359 2.1379 49.166 3.9914 64.315 3.9993l15.315 0.008 67.078-32.018 67.078-32.018 22.728 0.26807 22.728 0.26801-91.316 40.25-91.316 40.25h-158.72c-87.297 0-158.53-0.17816-158.31-0.3959zm274.92-35.28c-58.426-3.2181-123.73-17.287-175.5-37.807-25.479-10.1-66.372-31.411-70.728-36.859-0.95027-1.1886-1.7378-3.5835-1.75-5.3221-0.0308-4.3784 3.2434-6.8628 17.585-13.343 6.5412-2.9556 27.939-12.649 47.551-21.542l35.658-16.168 8.4989 10.107c49.22 58.52 109.64 95.01 173.69 104.9l8.5 1.3118 76-34.75 76-34.75 9 0.0646c18.03 0.12935 22.529-2.5217-73.117 43.078l-87.572 41.75-19.155-0.18498c-10.53-0.1-21.63-0.32-24.65-0.49zm40-30.983c-23.25-4.46-37.18-8.23-52.6-14.24-61.36-23.91-119.94-76.89-161.65-146.18-14.093-23.41-15.744-28.42-12.321-37.38 1.7914-4.6908 7.9133-10.965 12.342-12.649 1.4666-0.5576 37.106-9.3366 79.198-19.509 66.58-16.09 77.376-18.452 83.031-18.163 12.798 0.65284 21.196 7.1363 29.5 22.773 10.627 20.011 23.342 37.002 40.432 54.028 39.162 39.016 96.464 65.02 157.15 71.315 7.4696 0.77479 14.579 1.9426 15.798 2.5951 4.3431 2.3244 5.1008 10.018 1.3143 13.346-3.1145 2.7373-182.61 83.959-186.19 84.254-1.925 0.15853-4.625 0.0726-6-0.191zm79.295-51.053c53.258-24.281 73.416-33.909 72.071-34.424-1.0264-0.39357-7.4399-1.9069-14.252-3.363-20.42-4.37-45.99-13.42-65.4-23.15-47.69-23.92-83.94-58.49-108.78-103.72-5.8586-10.669-9.205-14.233-14.221-15.147-4.5815-0.83473-156.71 35.857-158.48 38.223-1.6339 2.1862-1.126 3.5865 5.483 15.117 22.953 40.046 54.767 78.374 87.029 104.85 27.08 22.222 58.092 39.023 89.442 48.458 11.144 3.3538 25.951 6.678 30.229 6.7868 1.8349 0.0467 30.541-12.514 76.866-33.634z"/>
	</g>
</svg>
