<svg xmlns:rdf="http://www.w3.org/1999/02/22-rdf-syntax-ns#" xmlns="http://www.w3.org/2000/svg" height="512" width="512" version="1.1" xmlns:cc="http://creativecommons.org/ns#" xmlns:dc="http://purl.org/dc/elements/1.1/" viewBox="0 0 511.99999 511.99999">
	<g transform="translate(0 -540.36)">
		<path d="m233.08 1051.3c-54.758-4.8622-109.78-29.208-149.79-66.284-3.4202-3.1688-6.6036-5.5234-7.0743-5.2325-0.47072 0.29092-4.9998 6.7767-10.065 14.413-6.9521 10.482-10.153 14.415-13.062 16.05-7.562 4.2501-18.268 1.919-23.247-5.0618l-2.35-3.3-0.269-73.36c-0.17868-48.699 0.08202-74.626 0.7763-77.205 2.1718-8.0656 10.683-13.84 18.735-12.712 4.4727 0.62702 130.31 56.957 135.01 60.435 4.4656 3.3058 6.5173 7.7171 6.4618 13.893-0.0563 6.2617-2.0449 10.417-6.6753 13.949-2.7008 2.06-5.9526 3.0621-14.751 4.5459-6.2076 1.0469-12.354 1.906-13.659 1.9092-3.5266 0.009-1.5811 1.8585 9.5119 9.0446 29.976 19.419 65.802 29.278 100.36 27.619 44.971-2.1589 83.679-19.3 115.5-51.147 15.051-15.063 23.274-26.602 33.73-47.331 11.08-21.965 17.125-28.005 31.793-31.766 22.218-5.6959 45.202 8.8948 50.118 31.816 2.4277 11.32-0.009 20.825-10.717 41.804-24.44 47.885-65.988 88.56-114.93 112.51-18.13 8.8722-30.434 13.479-47.857 17.918-29.709 7.569-58.483 10.009-87.568 7.4269zm-184.46-298.05c-14.14-3.32-27.246-16.65-30.579-31.1-2.675-11.59-1.046-19.02 8.394-38.29 32.731-66.79 93.817-116.69 165.43-135.12 83.927-21.603 174.09 0.86376 236.86 59.02 3.4202 3.1688 6.6036 5.5234 7.0743 5.2325 0.47071-0.29092 4.9998-6.7767 10.065-14.413 6.9521-10.482 10.153-14.415 13.062-16.05 7.562-4.2501 18.268-1.919 23.247 5.0618l2.3342 3.2726v75.573 75.573l-2.8227 4.2652c-3.5498 5.3639-10.086 8.543-16.077 7.8197-4.6365-0.55982-130.21-56.623-135.35-60.428-4.4656-3.3058-6.5173-7.7171-6.4618-13.893 0.0563-6.2617 2.0449-10.417 6.6753-13.949 2.7008-2.06 5.9526-3.0621 14.751-4.5459 6.2076-1.0469 12.354-1.906 13.659-1.9092 3.5266-0.009 1.5811-1.8585-9.5119-9.0446-77.778-50.385-180.19-30.53-234.9 45.539-3.5597 4.95-10.164 16.324-14.677 25.275-8.6523 17.162-13.028 22.833-21.412 27.746-8.2008 4.806-20.315 6.584-29.757 4.3673z"/>
	</g>
</svg>
