<?xml version="1.0" encoding="iso-8859-1"?>
<!-- Generator: Adobe Illustrator 16.0.0, SVG Export Plug-In . SVG Version: 6.00 Build 0)  -->
<!DOCTYPE svg PUBLIC "-//W3C//DTD SVG 1.1//EN" "http://www.w3.org/Graphics/SVG/1.1/DTD/svg11.dtd">
<svg version="1.1" id="Capa_1" xmlns="http://www.w3.org/2000/svg" xmlns:xlink="http://www.w3.org/1999/xlink" x="0px" y="0px"
	 width="281.061px" height="281.061px" viewBox="0 0 281.061 281.061" style="enable-background:new 0 0 281.061 281.061;"
	 xml:space="preserve">
<g>
	<g>
		<path d="M279.692,159.076l-84.548,4.161c0.925-2.246,1.693-4.575,2.354-6.947l69.481-76.669
			c8.93,18.465,14.082,39.067,14.082,60.916C281.061,146.832,280.502,152.993,279.692,159.076z"/>
		<path d="M149.483,169.356c-2.843,0.883-5.807,1.507-8.955,1.507c-3.967,0-7.723-0.816-11.196-2.21
			c-1.318-0.521-2.534-1.2-3.765-1.903c-9.112-5.229-15.348-14.97-15.348-26.214c0-16.705,13.598-30.315,30.315-30.315
			c9.875,0,18.575,4.816,24.118,12.139c0.828,1.108,1.561,2.276,2.233,3.48c2.456,4.371,3.969,9.34,3.969,14.69
			c0,0.85-0.18,1.643-0.252,2.477c-0.252,3.129-0.883,6.144-2.012,8.93c-2.161,5.296-5.788,9.8-10.364,13.103
			C155.596,166.948,152.648,168.359,149.483,169.356z"/>
		<path d="M0,140.536c0-8.214,0.856-16.216,2.201-24.049l81.35-3.996l-73.202,80.782C3.726,176.971,0,159.19,0,140.536z"/>
		<path d="M251.145,54.151l-56.577,62.423c-0.469-1.051-0.974-2.072-1.502-3.086L187.915,8.404
			C213.098,17.465,234.938,33.44,251.145,54.151z"/>
		<path d="M140.54,0.003c6.16,0,12.198,0.535,18.155,1.315l4.071,82.92L83.368,12.283C100.848,4.456,120.168,0.003,140.54,0.003z"/>
		<path d="M57.289,27.562l60.027,54.395L10.583,87.202C20.435,63.275,36.752,42.745,57.289,27.562z"/>
		<path d="M24.872,220.187l56.424-62.258l5.521,112.422C61.654,259.891,40.19,242.339,24.872,220.187z"/>
		<path d="M140.54,281.058c-8.356,0-16.492-0.871-24.431-2.275l-4.261-86.542c0.457,0.24,0.898,0.475,1.36,0.709l83.953,76.087
			C179.82,276.71,160.682,281.058,140.54,281.058z"/>
		<path d="M223.319,253.825l-63.411-57.465c2.354-0.817,4.611-1.777,6.81-2.865l105.805-5.199
			C262.915,214.753,245.644,237.475,223.319,253.825z"/>
	</g>
</g>
<g>
</g>
<g>
</g>
<g>
</g>
<g>
</g>
<g>
</g>
<g>
</g>
<g>
</g>
<g>
</g>
<g>
</g>
<g>
</g>
<g>
</g>
<g>
</g>
<g>
</g>
<g>
</g>
<g>
</g>
</svg>
